1.407422006130218506e+02
2.306045532226562500e+02
2.608883635997772217e+02
1.902346429824829102e+02
2.629745275974273682e+02
1.434136638641357422e+02
9.957616686820983887e+01
7.944272828102111816e+01
1.059659264087677002e+02
2.274800691604614258e+02
1.069722378253936768e+02
3.768759369850158691e+01
8.010138702392578125e+01
7.687793707847595215e+01
1.408864126205444336e+02
5.664845395088195801e+01
1.072215428352355957e+02
1.037115504741668701e+02
1.137350971698760986e+02
1.310005276203155518e+02
